 PHYID 0 - Read - Command : 5201CA94 - Data : 00000000
 PHYID 0 - Write - Command : 00047000 - Data : 00010018
 PHYID 0 - Write - Command : 00047004 - Data : 00000002
 PHYID 0 - Write - Command : 00047008 - Data : 00000000
 PHYID 0 - Write - Command : 0004700C - Data : 00000000
 PHYID 0 - Write - Command : 00047010 - Data : 00000000
 PHYID 0 - Write - Command : 00047014 - Data : 00000000
 PHYID 0 - Write - Command : 00047018 - Data : 00000000
 PHYID 0 - Write - Command : 5201CA98 - Data : 00000002
 PHYID 0 - Write - Command : 5201CA94 - Data : 0000800F
 PHYID 0 - Read - Command : 5201CA9C - Data : 00008000
 PHYID 0 - Read - Command : 5201CAA0 - Data : 00000002
 PHYID 0 - Read - Command : 00047400 - Data : 00010018
 PHYID 0 - Read - Command : 00047404 - Data : 00000002
 PHYID 0 - Read - Command : 00047408 - Data : 00000001
 PHYID 0 - Read - Command : 0004740C - Data : 00000000
 PHYID 0 - Read - Command : 00047410 - Data : 00000000
 PHYID 0 - Read - Command : 00047414 - Data : 00000000
 PHYID 0 - Read - Command : 00047418 - Data : 00000000
 PHYID 0 - Write - Command : 5201CA84 - Data : 00000000
 PHYID 0 - Write - Command : 5201CA94 - Data : 00000000
 PHYID 0 - Write - Command : 5201CA74 - Data : 00000000
 PHYID 0 - Write - Command : 5201CA9C - Data : 00000000
 PHYID 0 - Write - Command : 5201CAA0 - Data : 00000000