'App.ReadEst &H00&, &H5201D000&   ' data=&H00007540&
'App.ReadEst &H00&, &H5201D004&   ' data=&H00000A08&
'App.ReadEst &H00&, &H5201D004&   ' data=&H00000A08&

'App.WriteEst &H00&, &H5201D408&, &H000000E0&   '
'App.ReadEst &H00&, &H5201D408&   ' data=&H000000E0&
'App.ReadEst &H00&, &H5201D408&   ' data=&H000020E0&

'App.WriteEst &H00&, &H5201C800&, &H00000000&   '
'App.ReadEst &H00&, &H5201C800&   ' data=&H0000802E&
'App.WriteEst &H00&, &H5201C804&, &H00000000&   '
'App.ReadEst &H00&, &H5201C804&   ' data=&H00008271&