'App.ReadEst &H00&, &H5201CA74&   ' data=&H00000000&
'App.WriteEst &H00&, &H00047000&, &H003A001C&   '
'App.WriteEst &H00&, &H00047004&, &H00040000&   '
'App.WriteEst &H00&, &H00047008&, &H00000004&   '
'App.WriteEst &H00&, &H0004700C&, &H00020002&   '
'App.WriteEst &H00&, &H00047010&, &H00000000&   '
'App.WriteEst &H00&, &H00047014&, &H00080001&   '
'App.WriteEst &H00&, &H00047018&, &H00080001&   '
'App.WriteEst &H00&, &H0004701C&, &H00000002&   '
'App.WriteEst &H00&, &H5201CA78&, &H00008008&   '
'App.WriteEst &H00&, &H5201CA74&, &H00008008&   '
'App.ReadEst &H00&, &H5201CA7C&   ' data=&H00008000&
'App.ReadEst &H00&, &H5201CA80&   ' data=&H00008008&
'App.WriteEst &H00&, &H5201CA84&, &H00000000&   '
'App.WriteEst &H00&, &H5201CA94&, &H00000000&   '
'App.WriteEst &H00&, &H5201CA74&, &H00000000&   '
'App.WriteEst &H00&, &H5201CA7C&, &H00000000&   '
'App.WriteEst &H00&, &H5201CA80&, &H00000000&   '
'App.ReadEst &H00&, &H5201D4AC&   ' data=&H00000000&
'App.ReadEst &H00&, &H5201D480&   ' data=&H0000F07B&
'App.ReadEst &H00&, &H5201D480&   ' data=&H0000F07B&
'App.ReadEst &H00&, &H5201CDB8&   ' data=&H00000000&
'App.ReadEst &H00&, &H5201CB4C&   ' data=&H00008000&
'App.ReadEst &H00&, &H5201CB8C&   ' data=&H00008000&
'App.ReadEst &H00&, &H5201D494&   ' data=&H00000088&
'App.ReadEst &H00&, &H5201D494&   ' data=&H00000088&
'App.ReadEst &H00&, &H5201D494&   ' data=&H00000088&
'App.ReadEst &H00&, &H5201D494&   ' data=&H00000088&
'App.ReadEst &H00&, &H5201D490&   ' data=&H00000088&
'App.ReadEst &H00&, &H5201D490&   ' data=&H00000088&
'App.ReadEst &H00&, &H5201D490&   ' data=&H00000088&
'App.ReadEst &H00&, &H5201D490&   ' data=&H00000088&
'App.ReadEst &H00&, &H5201CA74&   ' data=&H00000000&
'App.WriteEst &H00&, &H00047000&, &H003B001C&   '
'App.WriteEst &H00&, &H00047004&, &H00000000&   '
'App.WriteEst &H00&, &H00047008&, &H00000000&   '
'App.WriteEst &H00&, &H0004700C&, &H00000000&   '
'App.WriteEst &H00&, &H00047010&, &H00000000&   '
'App.WriteEst &H00&, &H00047014&, &H00010000&   '
'App.WriteEst &H00&, &H00047018&, &H00000000&   '
'App.WriteEst &H00&, &H0004701C&, &H00000000&   '
'App.WriteEst &H00&, &H5201CA78&, &H00008001&   '
'App.WriteEst &H00&, &H5201CA74&, &H00008009&   '
'App.ReadEst &H00&, &H5201CA7C&   ' data=&H00008000&
'App.ReadEst &H00&, &H5201CA80&   ' data=&H00008001&
'App.ReadEst &H00&, &H00047400&   ' data=&H003B001C&
'App.ReadEst &H00&, &H00047404&   ' data=&H00000000&
'App.ReadEst &H00&, &H00047408&   ' data=&H00000000&
'App.ReadEst &H00&, &H0004740C&   ' data=&H00000000&
'App.ReadEst &H00&, &H00047410&   ' data=&H00000000&
'App.ReadEst &H00&, &H00047414&   ' data=&H00000000&
'App.ReadEst &H00&, &H00047418&   ' data=&H00000000&
'App.ReadEst &H00&, &H0004741C&   ' data=&H00000000&
'App.WriteEst &H00&, &H5201CA84&, &H00000000&   '
'App.WriteEst &H00&, &H5201CA94&, &H00000000&   '
'App.WriteEst &H00&, &H5201CA74&, &H00000000&   '
'App.WriteEst &H00&, &H5201CA7C&, &H00000000&   '
'App.WriteEst &H00&, &H5201CA80&, &H00000000&   '
'App.ReadEst &H00&, &H5201CA74&   ' data=&H00000000&
'App.WriteEst &H00&, &H00047000&, &H003C001C&   '
'App.WriteEst &H00&, &H00047004&, &H00000000&   '
'App.WriteEst &H00&, &H00047008&, &H00000000&   '
'App.WriteEst &H00&, &H0004700C&, &H00000000&   '
'App.WriteEst &H00&, &H00047010&, &H00000000&   '
'App.WriteEst &H00&, &H00047014&, &H00020000&   '
'App.WriteEst &H00&, &H00047018&, &H00000000&   '
'App.WriteEst &H00&, &H0004701C&, &H00000000&   '
'App.WriteEst &H00&, &H5201CA78&, &H00008002&   '
'App.WriteEst &H00&, &H5201CA74&, &H00008009&   '
'App.ReadEst &H00&, &H5201CA7C&   ' data=&H00008000&
'App.ReadEst &H00&, &H5201CA80&   ' data=&H00008002&
'App.ReadEst &H00&, &H00047400&   ' data=&H003C001C&
'App.ReadEst &H00&, &H00047404&   ' data=&H00040000&
'App.ReadEst &H00&, &H00047408&   ' data=&H00000004&
'App.ReadEst &H00&, &H0004740C&   ' data=&H00020002&
'App.ReadEst &H00&, &H00047410&   ' data=&H00000000&
'App.ReadEst &H00&, &H00047414&   ' data=&H00020001&
'App.ReadEst &H00&, &H00047418&   ' data=&H00020001&
'App.ReadEst &H00&, &H0004741C&   ' data=&H00000002&
'App.WriteEst &H00&, &H5201CA84&, &H00000000&   '
'App.WriteEst &H00&, &H5201CA94&, &H00000000&   '
'App.WriteEst &H00&, &H5201CA74&, &H00000000&   '
'App.WriteEst &H00&, &H5201CA7C&, &H00000000&   '
'App.WriteEst &H00&, &H5201CA80&, &H00000000&   '
'App.ReadEst &H00&, &H5201CA74&   ' data=&H00000000&
'App.WriteEst &H00&, &H00047000&, &H003D001C&   '
'App.WriteEst &H00&, &H00047004&, &H00000000&   '
'App.WriteEst &H00&, &H00047008&, &H00000000&   '
'App.WriteEst &H00&, &H0004700C&, &H00000000&   '
'App.WriteEst &H00&, &H00047010&, &H00000000&   '
'App.WriteEst &H00&, &H00047014&, &H00040000&   '
'App.WriteEst &H00&, &H00047018&, &H00000000&   '
'App.WriteEst &H00&, &H0004701C&, &H00000000&   '
'App.WriteEst &H00&, &H5201CA78&, &H00008004&   '
'App.WriteEst &H00&, &H5201CA74&, &H00008009&   '
'App.ReadEst &H00&, &H5201CA7C&   ' data=&H00008000&
'App.ReadEst &H00&, &H5201CA80&   ' data=&H00008004&
'App.ReadEst &H00&, &H00047400&   ' data=&H003D001C&
'App.ReadEst &H00&, &H00047404&   ' data=&H00000000&
'App.ReadEst &H00&, &H00047408&   ' data=&H00000000&
'App.ReadEst &H00&, &H0004740C&   ' data=&H00000000&
'App.ReadEst &H00&, &H00047410&   ' data=&H00000000&
'App.ReadEst &H00&, &H00047414&   ' data=&H00000000&
'App.ReadEst &H00&, &H00047418&   ' data=&H00000000&
'App.ReadEst &H00&, &H0004741C&   ' data=&H00000000&
'App.WriteEst &H00&, &H5201CA84&, &H00000000&   '
'App.WriteEst &H00&, &H5201CA94&, &H00000000&   '
'App.WriteEst &H00&, &H5201CA74&, &H00000000&   '
'App.WriteEst &H00&, &H5201CA7C&, &H00000000&   '
'App.WriteEst &H00&, &H5201CA80&, &H00000000&   '
'App.ReadEst &H00&, &H5201CA74&   ' data=&H00000000&
'App.WriteEst &H00&, &H00047000&, &H003E001C&   '
'App.WriteEst &H00&, &H00047004&, &H00000000&   '
'App.WriteEst &H00&, &H00047008&, &H00000000&   '
'App.WriteEst &H00&, &H0004700C&, &H00000000&   '
'App.WriteEst &H00&, &H00047010&, &H00000000&   '
'App.WriteEst &H00&, &H00047014&, &H00080000&   '
'App.WriteEst &H00&, &H00047018&, &H00000000&   '
'App.WriteEst &H00&, &H0004701C&, &H00000000&   '
'App.WriteEst &H00&, &H5201CA78&, &H00008008&   '
'App.WriteEst &H00&, &H5201CA74&, &H00008009&   '
'App.ReadEst &H00&, &H5201CA7C&   ' data=&H00008000&
'App.ReadEst &H00&, &H5201CA80&   ' data=&H00008008&
'App.ReadEst &H00&, &H00047400&   ' data=&H003E001C&
'App.ReadEst &H00&, &H00047404&   ' data=&H00040000&
'App.ReadEst &H00&, &H00047408&   ' data=&H00000004&
'App.ReadEst &H00&, &H0004740C&   ' data=&H00020002&
'App.ReadEst &H00&, &H00047410&   ' data=&H00000000&
'App.ReadEst &H00&, &H00047414&   ' data=&H00080001&
'App.ReadEst &H00&, &H00047418&   ' data=&H00080001&
'App.ReadEst &H00&, &H0004741C&   ' data=&H00000002&
'App.WriteEst &H00&, &H5201CA84&, &H00000000&   '
'App.WriteEst &H00&, &H5201CA94&, &H00000000&   '
'App.WriteEst &H00&, &H5201CA74&, &H00000000&   '
'App.WriteEst &H00&, &H5201CA7C&, &H00000000&   '
'App.WriteEst &H00&, &H5201CA80&, &H00000000&   '