 PHYID 0 - Read - Command : 5201CA94 - Data : 00000000
 PHYID 0 - Write - Command : 00047000 - Data : 00030008
 PHYID 0 - Write - Command : 00047004 - Data : 00000400
 PHYID 0 - Write - Command : 00047008 - Data : 00000000
 PHYID 0 - Write - Command : 5201CA98 - Data : 00000008
 PHYID 0 - Write - Command : 5201CA94 - Data : 00008007
 PHYID 0 - Read - Command : 5201CA9C - Data : 00008000
 PHYID 0 - Read - Command : 5201CAA0 - Data : 00000008
 PHYID 0 - Read - Command : 00047400 - Data : 00030008
 PHYID 0 - Read - Command : 00047404 - Data : 00000400
 PHYID 0 - Read - Command : 00047408 - Data : 00001000
 PHYID 0 - Write - Command : 5201CA84 - Data : 00000000
 PHYID 0 - Write - Command : 5201CA94 - Data : 00000000
 PHYID 0 - Write - Command : 5201CA74 - Data : 00000000
 PHYID 0 - Write - Command : 5201CA9C - Data : 00000000
 PHYID 0 - Write - Command : 5201CAA0 - Data : 00000000