 PHYID 0 - Read - Command : 5201CA84 - Data : 00000000
 PHYID 0 - Write - Command : 00047000 - Data : 0000002C
 PHYID 0 - Write - Command : 00047004 - Data : 00000002
 PHYID 0 - Write - Command : 00047008 - Data : 00000001
 PHYID 0 - Write - Command : 0004700C - Data : 00000500
 PHYID 0 - Write - Command : 00047010 - Data : 00000000
 PHYID 0 - Write - Command : 00047014 - Data : 00000000
 PHYID 0 - Write - Command : 00047018 - Data : 00000000
 PHYID 0 - Write - Command : 0004701C - Data : 00000000
 PHYID 0 - Write - Command : 00047020 - Data : 00000000
 PHYID 0 - Write - Command : 00047024 - Data : 00000000
 PHYID 0 - Write - Command : 00047028 - Data : 00000000
 PHYID 0 - Write - Command : 0004702C - Data : 00000000
 PHYID 0 - Write - Command : 5201CA88 - Data : 00000001
 PHYID 0 - Write - Command : 5201CA84 - Data : 0000800C
 PHYID 0 - Read - Command : 5201CA8C - Data : 00008000
 PHYID 0 - Read - Command : 5201CA90 - Data : 00000001
 PHYID 0 - Write - Command : 5201CA84 - Data : 00000000
 PHYID 0 - Write - Command : 5201CA94 - Data : 00000000
 PHYID 0 - Write - Command : 5201CA74 - Data : 00000000
 PHYID 0 - Write - Command : 5201CA8C - Data : 00000000
 PHYID 0 - Write - Command : 5201CA90 - Data : 00000000