 PHYID 0 - Read - Command : 5201CA84 - Data : 00000000
 PHYID 0 - Write - Command : 00047000 - Data : 00000002
 PHYID 0 - Write - Command : 00047004 - Data : CCCC0001
 PHYID 0 - Write - Command : 5201CA88 - Data : 00000001
 PHYID 0 - Write - Command : 5201CA84 - Data : 0000800A
 PHYID 0 - Read - Command : 5201CA8C - Data : 00008000
 PHYID 0 - Read - Command : 5201CA90 - Data : 00000001
 PHYID 0 - Write - Command : 5201CA84 - Data : 00000000
 PHYID 0 - Write - Command : 5201CA94 - Data : 00000000
 PHYID 0 - Write - Command : 5201CA74 - Data : 00000000
 PHYID 0 - Write - Command : 5201CA8C - Data : 00000000
 PHYID 0 - Write - Command : 5201CA90 - Data : 00000000