'App.ReadEst &H00&, &H5201CA74&   ' data=&H00000000&
'App.WriteEst &H00&, &H00047000&, &H0020001C&   '
'App.WriteEst &H00&, &H00047004&, &H00030000&   '
'App.WriteEst &H00&, &H00047008&, &H00000000&   '
'App.WriteEst &H00&, &H0004700C&, &H00000000&   '
'App.WriteEst &H00&, &H00047010&, &H00000000&   '
'App.WriteEst &H00&, &H00047014&, &H000C0001&   '
'App.WriteEst &H00&, &H00047018&, &H000C0001&   '
'App.WriteEst &H00&, &H0004701C&, &H00000002&   '
'App.WriteEst &H00&, &H5201CA78&, &H0000800C&   '
'App.WriteEst &H00&, &H5201CA74&, &H00008008&   '
'App.ReadEst &H00&, &H5201CA7C&   ' data=&H00008000&
'App.ReadEst &H00&, &H5201CA80&   ' data=&H0000800C&
'App.WriteEst &H00&, &H5201CA84&, &H00000000&   '
'App.WriteEst &H00&, &H5201CA94&, &H00000000&   '
'App.WriteEst &H00&, &H5201CA74&, &H00000000&   '
'App.WriteEst &H00&, &H5201CA7C&, &H00000000&   '
'App.WriteEst &H00&, &H5201CA80&, &H00000000&   '
'App.ReadEst &H00&, &H5201D4AC&   ' data=&H00000000&
'App.ReadEst &H00&, &H5201D480&   ' data=&H0000F07F&
'App.ReadEst &H00&, &H5201D480&   ' data=&H0000F07F&
'App.ReadEst &H00&, &H5201CDB8&   ' data=&H00000000&
'App.ReadEst &H00&, &H5201CB48&   ' data=&H00008000&
'App.ReadEst &H00&, &H5201CB4C&   ' data=&H00008000&
'App.ReadEst &H00&, &H5201CB88&   ' data=&H0000A000&
'App.ReadEst &H00&, &H5201CB8C&   ' data=&H0000A000&
'App.ReadEst &H00&, &H5201D494&   ' data=&H000000AA&
'App.ReadEst &H00&, &H5201D494&   ' data=&H000000AA&
'App.ReadEst &H00&, &H5201D494&   ' data=&H000000AA&
'App.ReadEst &H00&, &H5201D494&   ' data=&H000000AA&
'App.ReadEst &H00&, &H5201D490&   ' data=&H000000AA&
'App.ReadEst &H00&, &H5201D490&   ' data=&H000000AA&
'App.ReadEst &H00&, &H5201D490&   ' data=&H000000AA&
'App.ReadEst &H00&, &H5201D490&   ' data=&H000000AA&
'App.ReadEst &H00&, &H5201CA74&   ' data=&H00000000&
'App.WriteEst &H00&, &H00047000&, &H0021001C&   '
'App.WriteEst &H00&, &H00047004&, &H00000000&   '
'App.WriteEst &H00&, &H00047008&, &H00000000&   '
'App.WriteEst &H00&, &H0004700C&, &H00000000&   '
'App.WriteEst &H00&, &H00047010&, &H00000000&   '
'App.WriteEst &H00&, &H00047014&, &H00010000&   '
'App.WriteEst &H00&, &H00047018&, &H00000000&   '
'App.WriteEst &H00&, &H0004701C&, &H00000000&   '
'App.WriteEst &H00&, &H5201CA78&, &H00008001&   '
'App.WriteEst &H00&, &H5201CA74&, &H00008009&   '
'App.ReadEst &H00&, &H5201CA7C&   ' data=&H00008000&
'App.ReadEst &H00&, &H5201CA80&   ' data=&H00008001&
'App.ReadEst &H00&, &H00047400&   ' data=&H0021001C&
'App.ReadEst &H00&, &H00047404&   ' data=&H00030000&
'App.ReadEst &H00&, &H00047408&   ' data=&H00000000&
'App.ReadEst &H00&, &H0004740C&   ' data=&H00000000&
'App.ReadEst &H00&, &H00047410&   ' data=&H00000000&
'App.ReadEst &H00&, &H00047414&   ' data=&H00030001&
'App.ReadEst &H00&, &H00047418&   ' data=&H00030001&
'App.ReadEst &H00&, &H0004741C&   ' data=&H00000002&
'App.WriteEst &H00&, &H5201CA84&, &H00000000&   '
'App.WriteEst &H00&, &H5201CA94&, &H00000000&   '
'App.WriteEst &H00&, &H5201CA74&, &H00000000&   '
'App.WriteEst &H00&, &H5201CA7C&, &H00000000&   '
'App.WriteEst &H00&, &H5201CA80&, &H00000000&   '
'App.ReadEst &H00&, &H5201CA74&   ' data=&H00000000&
'App.WriteEst &H00&, &H00047000&, &H0022001C&   '
'App.WriteEst &H00&, &H00047004&, &H00000000&   '
'App.WriteEst &H00&, &H00047008&, &H00000000&   '
'App.WriteEst &H00&, &H0004700C&, &H00000000&   '
'App.WriteEst &H00&, &H00047010&, &H00000000&   '
'App.WriteEst &H00&, &H00047014&, &H00020000&   '
'App.WriteEst &H00&, &H00047018&, &H00000000&   '
'App.WriteEst &H00&, &H0004701C&, &H00000000&   '
'App.WriteEst &H00&, &H5201CA78&, &H00008002&   '
'App.WriteEst &H00&, &H5201CA74&, &H00008009&   '
'App.ReadEst &H00&, &H5201CA7C&   ' data=&H00008000&
'App.ReadEst &H00&, &H5201CA80&   ' data=&H00008002&
'App.ReadEst &H00&, &H00047400&   ' data=&H0022001C&
'App.ReadEst &H00&, &H00047404&   ' data=&H00030000&
'App.ReadEst &H00&, &H00047408&   ' data=&H00000000&
'App.ReadEst &H00&, &H0004740C&   ' data=&H00000000&
'App.ReadEst &H00&, &H00047410&   ' data=&H00000000&
'App.ReadEst &H00&, &H00047414&   ' data=&H00030001&
'App.ReadEst &H00&, &H00047418&   ' data=&H00030001&
'App.ReadEst &H00&, &H0004741C&   ' data=&H00000002&
'App.WriteEst &H00&, &H5201CA84&, &H00000000&   '
'App.WriteEst &H00&, &H5201CA94&, &H00000000&   '
'App.WriteEst &H00&, &H5201CA74&, &H00000000&   '
'App.WriteEst &H00&, &H5201CA7C&, &H00000000&   '
'App.WriteEst &H00&, &H5201CA80&, &H00000000&   '
'App.ReadEst &H00&, &H5201CA74&   ' data=&H00000000&
'App.WriteEst &H00&, &H00047000&, &H0023001C&   '
'App.WriteEst &H00&, &H00047004&, &H00000000&   '
'App.WriteEst &H00&, &H00047008&, &H00000000&   '
'App.WriteEst &H00&, &H0004700C&, &H00000000&   '
'App.WriteEst &H00&, &H00047010&, &H00000000&   '
'App.WriteEst &H00&, &H00047014&, &H00040000&   '
'App.WriteEst &H00&, &H00047018&, &H00000000&   '
'App.WriteEst &H00&, &H0004701C&, &H00000000&   '
'App.WriteEst &H00&, &H5201CA78&, &H00008004&   '
'App.WriteEst &H00&, &H5201CA74&, &H00008009&   '
'App.ReadEst &H00&, &H5201CA7C&   ' data=&H00008000&
'App.ReadEst &H00&, &H5201CA80&   ' data=&H00008004&
'App.ReadEst &H00&, &H00047400&   ' data=&H0023001C&
'App.ReadEst &H00&, &H00047404&   ' data=&H00030000&
'App.ReadEst &H00&, &H00047408&   ' data=&H00000000&
'App.ReadEst &H00&, &H0004740C&   ' data=&H00000000&
'App.ReadEst &H00&, &H00047410&   ' data=&H00000000&
'App.ReadEst &H00&, &H00047414&   ' data=&H000C0001&
'App.ReadEst &H00&, &H00047418&   ' data=&H000C0001&
'App.ReadEst &H00&, &H0004741C&   ' data=&H00000002&
'App.WriteEst &H00&, &H5201CA84&, &H00000000&   '
'App.WriteEst &H00&, &H5201CA94&, &H00000000&   '
'App.WriteEst &H00&, &H5201CA74&, &H00000000&   '
'App.WriteEst &H00&, &H5201CA7C&, &H00000000&   '
'App.WriteEst &H00&, &H5201CA80&, &H00000000&   '
'App.ReadEst &H00&, &H5201CA74&   ' data=&H00000000&
'App.WriteEst &H00&, &H00047000&, &H0024001C&   '
'App.WriteEst &H00&, &H00047004&, &H00000000&   '
'App.WriteEst &H00&, &H00047008&, &H00000000&   '
'App.WriteEst &H00&, &H0004700C&, &H00000000&   '
'App.WriteEst &H00&, &H00047010&, &H00000000&   '
'App.WriteEst &H00&, &H00047014&, &H00080000&   '
'App.WriteEst &H00&, &H00047018&, &H00000000&   '
'App.WriteEst &H00&, &H0004701C&, &H00000000&   '
'App.WriteEst &H00&, &H5201CA78&, &H00008008&   '
'App.WriteEst &H00&, &H5201CA74&, &H00008009&   '
'App.ReadEst &H00&, &H5201CA7C&   ' data=&H00008000&
'App.ReadEst &H00&, &H5201CA80&   ' data=&H00008008&
'App.ReadEst &H00&, &H00047400&   ' data=&H0024001C&
'App.ReadEst &H00&, &H00047404&   ' data=&H00030000&
'App.ReadEst &H00&, &H00047408&   ' data=&H00000000&
'App.ReadEst &H00&, &H0004740C&   ' data=&H00000000&
'App.ReadEst &H00&, &H00047410&   ' data=&H00000000&
'App.ReadEst &H00&, &H00047414&   ' data=&H000C0001&
'App.ReadEst &H00&, &H00047418&   ' data=&H000C0001&
'App.ReadEst &H00&, &H0004741C&   ' data=&H00000002&
'App.WriteEst &H00&, &H5201CA84&, &H00000000&   '
'App.WriteEst &H00&, &H5201CA94&, &H00000000&   '
'App.WriteEst &H00&, &H5201CA74&, &H00000000&   '
'App.WriteEst &H00&, &H5201CA7C&, &H00000000&   '
'App.WriteEst &H00&, &H5201CA80&, &H00000000&   '